<?xml version="1.0" encoding="UTF-8" standalone="no"?>
<!-- Created with Inkscape (http://www.inkscape.org/) -->
<svg id="svg3936" xmlns:rdf="http://www.w3.org/1999/02/22-rdf-syntax-ns#" xmlns="http://www.w3.org/2000/svg" height="179.8" width="723.17" version="1.1" xmlns:cc="http://creativecommons.org/ns#" xmlns:dc="http://purl.org/dc/elements/1.1/">
	<metadata id="metadata3941">
		<rdf:RDF>
			<cc:Work rdf:about="">
				<dc:format>image/svg+xml</dc:format>
				<dc:type rdf:resource="http://purl.org/dc/dcmitype/StillImage"/>
				<dc:title/>
			</cc:Work>
		</rdf:RDF>
	</metadata>
	<g id="layer1" stroke-linejoin="miter" transform="translate(685.23945,-545.10393)" stroke-dashoffset="0" stroke-linecap="round" stroke-dasharray="none" stroke-miterlimit="4">
		<g id="g4844" transform="translate(-844.5832,-967.56477)">
			<rect id="rect4846" height="44.447" width="44.447" stroke="#FFF" y="1513.7" x="160.34" stroke-width="2" fill="#00d4db"/>
			<rect id="rect4848" height="44.447" width="44.447" stroke="#FFF" y="1513.7" x="294.69" stroke-width="2" fill="#00d4db"/>
			<rect id="rect4850" height="44.447" width="44.447" stroke="#FFF" y="1513.7" x="249.91" stroke-width="2" fill="#00d4db"/>
			<rect id="rect4852" height="44.447" width="44.447" stroke="#FFF" y="1513.7" x="205.12" stroke-width="2" fill="#00d4db"/>
			<rect id="rect4854" height="44.447" width="44.447" stroke="#FFF" y="1647" x="160.34" stroke-width="2" fill="#00d4db"/>
			<rect id="rect4856" height="44.447" width="44.447" stroke="#FFF" y="1647" x="294.69" stroke-width="2" fill="#00d4db"/>
			<rect id="rect4858" height="44.447" width="44.447" stroke="#FFF" y="1647" x="249.91" stroke-width="2" fill="#00d4db"/>
			<rect id="rect4860" height="44.447" width="44.447" stroke="#FFF" y="1647" x="205.12" stroke-width="2" fill="#00d4db"/>
			<rect id="rect4862" height="44.447" width="44.447" stroke="#FFF" y="1602.6" x="160.34" stroke-width="2" fill="#00d4db"/>
			<rect id="rect4864" height="44.447" width="44.447" stroke="#FFF" y="1602.6" x="294.69" stroke-width="2" fill="#00d4db"/>
			<rect id="rect4866" height="44.447" width="44.447" stroke="#FFF" y="1602.6" x="249.91" stroke-width="2" fill="#00d4db"/>
			<rect id="rect4868" height="44.447" width="44.447" stroke="#FFF" y="1602.6" x="205.12" stroke-width="2" fill="#00d4db"/>
			<rect id="rect4870" height="44.447" width="44.447" stroke="#FFF" y="1558.1" x="160.34" stroke-width="2" fill="#00d4db"/>
			<rect id="rect4872" height="44.447" width="44.447" stroke="#FFF" y="1558.1" x="294.69" stroke-width="2" fill="#00d4db"/>
			<rect id="rect4874" height="44.447" width="44.447" stroke="#FFF" y="1558.1" x="249.91" stroke-width="2" fill="#00d4db"/>
			<rect id="rect4876" height="44.447" width="44.447" stroke="#FFF" y="1558.1" x="205.12" stroke-width="2" fill="#00d4db"/>
			<g id="g4878" stroke="#dbd400" stroke-width="1.46328843" fill="#ff523d">
				<path id="path4880" d="m558.61,387.68c0,7.2526-5.8794,13.132-13.132,13.132s-13.132-5.8794-13.132-13.132,5.8794-13.132,13.132-13.132,13.132,5.8794,13.132,13.132z" transform="matrix(1.3667845,0,0,1.3667845,-518.21065,1006.0228)"/>
				<path id="path4882" d="m558.61,387.68c0,7.2526-5.8794,13.132-13.132,13.132s-13.132-5.8794-13.132-13.132,5.8794-13.132,13.132-13.132,13.132,5.8794,13.132,13.132z" transform="matrix(1.3667845,0,0,1.3667845,-562.99408,1094.9163)"/>
				<path id="path4884" d="m558.61,387.68c0,7.2526-5.8794,13.132-13.132,13.132s-13.132-5.8794-13.132-13.132,5.8794-13.132,13.132-13.132,13.132,5.8794,13.132,13.132z" transform="matrix(1.3667845,0,0,1.3667845,-518.21065,1094.9163)"/>
				<path id="path4886" d="m558.61,387.68c0,7.2526-5.8794,13.132-13.132,13.132s-13.132-5.8794-13.132-13.132,5.8794-13.132,13.132-13.132,13.132,5.8794,13.132,13.132z" transform="matrix(1.3667845,0,0,1.3667845,-473.42723,1094.9163)"/>
				<path id="path4888" d="m558.61,387.68c0,7.2526-5.8794,13.132-13.132,13.132s-13.132-5.8794-13.132-13.132,5.8794-13.132,13.132-13.132,13.132,5.8794,13.132,13.132z" transform="matrix(1.3667845,0,0,1.3667845,-473.42723,1050.4695)"/>
			</g>
		</g>
		<g id="g4890" transform="translate(-842.19453,-967.56477)">
			<rect id="rect4892" height="44.447" width="44.447" stroke="#fdc30a" y="1513.7" x="338.75" stroke-width="2" fill="#8bbe85"/>
			<rect id="rect4894" height="44.447" width="44.447" stroke="#fdc30a" y="1513.7" x="473.1" stroke-width="2" fill="#8bbe85"/>
			<rect id="rect4896" height="44.447" width="44.447" stroke="#fdc30a" y="1513.7" x="428.31" stroke-width="2" fill="#8bbe85"/>
			<rect id="rect4898" height="44.447" width="44.447" stroke="#fdc30a" y="1513.7" x="383.53" stroke-width="2" fill="#8bbe85"/>
			<rect id="rect4900" height="44.447" width="44.447" stroke="#fdc30a" y="1647" x="338.75" stroke-width="2" fill="#8bbe85"/>
			<rect id="rect4902" height="44.447" width="44.447" stroke="#fdc30a" y="1647" x="473.1" stroke-width="2" fill="#8bbe85"/>
			<rect id="rect4904" height="44.447" width="44.447" stroke="#fdc30a" y="1647" x="428.31" stroke-width="2" fill="#8bbe85"/>
			<rect id="rect4906" height="44.447" width="44.447" stroke="#fdc30a" y="1647" x="383.53" stroke-width="2" fill="#8bbe85"/>
			<rect id="rect4908" height="44.447" width="44.447" stroke="#fdc30a" y="1602.6" x="338.75" stroke-width="2" fill="#8bbe85"/>
			<rect id="rect4910" height="44.447" width="44.447" stroke="#fdc30a" y="1602.6" x="473.1" stroke-width="2" fill="#8bbe85"/>
			<rect id="rect4912" height="44.447" width="44.447" stroke="#fdc30a" y="1602.6" x="428.31" stroke-width="2" fill="#8bbe85"/>
			<rect id="rect4914" height="44.447" width="44.447" stroke="#fdc30a" y="1602.6" x="383.53" stroke-width="2" fill="#8bbe85"/>
			<rect id="rect4916" height="44.447" width="44.447" stroke="#fdc30a" y="1558.1" x="338.75" stroke-width="2" fill="#8bbe85"/>
			<rect id="rect4918" height="44.447" width="44.447" stroke="#fdc30a" y="1558.1" x="473.1" stroke-width="2" fill="#8bbe85"/>
			<rect id="rect4920" height="44.447" width="44.447" stroke="#fdc30a" y="1558.1" x="428.31" stroke-width="2" fill="#8bbe85"/>
			<rect id="rect4922" height="44.447" width="44.447" stroke="#fdc30a" y="1558.1" x="383.53" stroke-width="2" fill="#8bbe85"/>
			<g id="g4924" transform="translate(12.857143,430)" stroke="#30352d" stroke-width="1.46328843" fill="#e7cfa1">
				<path id="path4926" d="m558.61,387.68c0,7.2526-5.8794,13.132-13.132,13.132s-13.132-5.8794-13.132-13.132,5.8794-13.132,13.132-13.132,13.132,5.8794,13.132,13.132z" transform="matrix(1.3667845,0,0,1.3667845,-397.4429,620.46954)"/>
				<path id="path4928" d="m558.61,387.68c0,7.2526-5.8794,13.132-13.132,13.132s-13.132-5.8794-13.132-13.132,5.8794-13.132,13.132-13.132,13.132,5.8794,13.132,13.132z" transform="matrix(1.3667845,0,0,1.3667845,-352.65947,709.36297)"/>
				<path id="path4930" d="m558.61,387.68c0,7.2526-5.8794,13.132-13.132,13.132s-13.132-5.8794-13.132-13.132,5.8794-13.132,13.132-13.132,13.132,5.8794,13.132,13.132z" transform="matrix(1.3667845,0,0,1.3667845,-352.65947,664.91625)"/>
				<path id="path4932" d="m558.61,387.68c0,7.2526-5.8794,13.132-13.132,13.132s-13.132-5.8794-13.132-13.132,5.8794-13.132,13.132-13.132,13.132,5.8794,13.132,13.132z" transform="matrix(1.3667845,0,0,1.3667845,-307.87605,664.91625)"/>
				<path id="path4934" d="m558.61,387.68c0,7.2526-5.8794,13.132-13.132,13.132s-13.132-5.8794-13.132-13.132,5.8794-13.132,13.132-13.132,13.132,5.8794,13.132,13.132z" transform="matrix(1.3667845,0,0,1.3667845,-307.87605,620.46954)"/>
			</g>
		</g>
		<g id="g5967" transform="translate(-1268.8473,-975.64607)">
			<rect id="rect4938" height="44.447" width="44.447" stroke="#bbcbff" y="1521.8" x="946.2" stroke-width="2" fill="#d1154f"/>
			<rect id="rect4940" height="44.447" width="44.447" stroke="#bbcbff" y="1521.8" x="1080.5" stroke-width="2" fill="#d1154f"/>
			<rect id="rect4942" height="44.447" width="44.447" stroke="#bbcbff" y="1521.8" x="1035.8" stroke-width="2" fill="#d1154f"/>
			<rect id="rect4944" height="44.447" width="44.447" stroke="#bbcbff" y="1521.8" x="990.98" stroke-width="2" fill="#d1154f"/>
			<rect id="rect4946" height="44.447" width="44.447" stroke="#bbcbff" y="1655.1" x="946.2" stroke-width="2" fill="#d1154f"/>
			<rect id="rect4948" height="44.447" width="44.447" stroke="#bbcbff" y="1655.1" x="1080.5" stroke-width="2" fill="#d1154f"/>
			<rect id="rect4950" height="44.447" width="44.447" stroke="#bbcbff" y="1655.1" x="1035.8" stroke-width="2" fill="#d1154f"/>
			<rect id="rect4952" height="44.447" width="44.447" stroke="#bbcbff" y="1655.1" x="990.98" stroke-width="2" fill="#d1154f"/>
			<rect id="rect4954" height="44.447" width="44.447" stroke="#bbcbff" y="1610.7" x="946.2" stroke-width="2" fill="#d1154f"/>
			<rect id="rect4956" height="44.447" width="44.447" stroke="#bbcbff" y="1610.7" x="1080.5" stroke-width="2" fill="#d1154f"/>
			<rect id="rect4958" height="44.447" width="44.447" stroke="#bbcbff" y="1610.7" x="1035.8" stroke-width="2" fill="#d1154f"/>
			<rect id="rect4960" height="44.447" width="44.447" stroke="#bbcbff" y="1610.7" x="990.98" stroke-width="2" fill="#d1154f"/>
			<rect id="rect4962" height="44.447" width="44.447" stroke="#bbcbff" y="1566.2" x="946.2" stroke-width="2" fill="#d1154f"/>
			<rect id="rect4964" height="44.447" width="44.447" stroke="#bbcbff" y="1566.2" x="1080.5" stroke-width="2" fill="#d1154f"/>
			<rect id="rect4966" height="44.447" width="44.447" stroke="#bbcbff" y="1566.2" x="1035.8" stroke-width="2" fill="#d1154f"/>
			<rect id="rect4968" height="44.447" width="44.447" stroke="#bbcbff" y="1566.2" x="990.98" stroke-width="2" fill="#d1154f"/>
			<g id="g5960" stroke="#943289" stroke-width="1.46328843" fill="#adc649">
				<path id="path4972" d="m558.61,387.68c0,7.2526-5.8794,13.132-13.132,13.132s-13.132-5.8794-13.132-13.132,5.8794-13.132,13.132-13.132,13.132,5.8794,13.132,13.132z" transform="matrix(1.3667845,0,0,1.3667845,312.4308,1058.5508)"/>
				<path id="path4974" d="m558.61,387.68c0,7.2526-5.8794,13.132-13.132,13.132s-13.132-5.8794-13.132-13.132,5.8794-13.132,13.132-13.132,13.132,5.8794,13.132,13.132z" transform="matrix(1.3667845,0,0,1.3667845,222.86397,1102.9974)"/>
				<path id="path4976" d="m558.61,387.68c0,7.2526-5.8794,13.132-13.132,13.132s-13.132-5.8794-13.132-13.132,5.8794-13.132,13.132-13.132,13.132,5.8794,13.132,13.132z" transform="matrix(1.3667845,0,0,1.3667845,267.64742,1147.4442)"/>
				<path id="path4978" d="m558.61,387.68c0,7.2526-5.8794,13.132-13.132,13.132s-13.132-5.8794-13.132-13.132,5.8794-13.132,13.132-13.132,13.132,5.8794,13.132,13.132z" transform="matrix(1.3667845,0,0,1.3667845,312.4308,1147.4442)"/>
				<path id="path4980" d="m558.61,387.68c0,7.2526-5.8794,13.132-13.132,13.132s-13.132-5.8794-13.132-13.132,5.8794-13.132,13.132-13.132,13.132,5.8794,13.132,13.132z" transform="matrix(1.3667845,0,0,1.3667845,312.4308,1102.9974)"/>
			</g>
		</g>
		<g id="g4982" transform="translate(-480.60054,-1146.2901)">
			<rect id="rect4984" height="44.447" width="44.447" stroke="#FFF" y="1692.4" x="338.75" stroke-width="2" fill="#09877c"/>
			<rect id="rect4986" height="44.447" width="44.447" stroke="#FFF" y="1692.4" x="473.1" stroke-width="2" fill="#09877c"/>
			<rect id="rect4988" height="44.447" width="44.447" stroke="#FFF" y="1692.4" x="428.31" stroke-width="2" fill="#09877c"/>
			<rect id="rect4990" height="44.447" width="44.447" stroke="#FFF" y="1692.4" x="383.53" stroke-width="2" fill="#09877c"/>
			<rect id="rect4992" height="44.447" width="44.447" stroke="#FFF" y="1825.7" x="338.75" stroke-width="2" fill="#09877c"/>
			<rect id="rect4994" height="44.447" width="44.447" stroke="#FFF" y="1825.7" x="473.1" stroke-width="2" fill="#09877c"/>
			<rect id="rect4996" height="44.447" width="44.447" stroke="#FFF" y="1825.7" x="428.31" stroke-width="2" fill="#09877c"/>
			<rect id="rect4998" height="44.447" width="44.447" stroke="#FFF" y="1825.7" x="383.53" stroke-width="2" fill="#09877c"/>
			<rect id="rect5000" height="44.447" width="44.447" stroke="#FFF" y="1781.3" x="338.75" stroke-width="2" fill="#09877c"/>
			<rect id="rect5002" height="44.447" width="44.447" stroke="#FFF" y="1781.3" x="473.1" stroke-width="2" fill="#09877c"/>
			<rect id="rect5004" height="44.447" width="44.447" stroke="#FFF" y="1781.3" x="428.31" stroke-width="2" fill="#09877c"/>
			<rect id="rect5006" height="44.447" width="44.447" stroke="#FFF" y="1781.3" x="383.53" stroke-width="2" fill="#09877c"/>
			<rect id="rect5008" height="44.447" width="44.447" stroke="#FFF" y="1736.8" x="338.75" stroke-width="2" fill="#09877c"/>
			<rect id="rect5010" height="44.447" width="44.447" stroke="#FFF" y="1736.8" x="473.1" stroke-width="2" fill="#09877c"/>
			<rect id="rect5012" height="44.447" width="44.447" stroke="#FFF" y="1736.8" x="428.31" stroke-width="2" fill="#09877c"/>
			<rect id="rect5014" height="44.447" width="44.447" stroke="#FFF" y="1736.8" x="383.53" stroke-width="2" fill="#09877c"/>
			<g id="g5016" transform="translate(12.857143,430)" stroke="#94caa6" stroke-width="1.46328843" fill="#d9017e">
				<path id="path5018" d="m558.61,387.68c0,7.2526-5.8794,13.132-13.132,13.132s-13.132-5.8794-13.132-13.132,5.8794-13.132,13.132-13.132,13.132,5.8794,13.132,13.132z" transform="matrix(1.3667845,0,0,1.3667845,-352.65947,799.19477)"/>
				<path id="path5020" d="m558.61,387.68c0,7.2526-5.8794,13.132-13.132,13.132s-13.132-5.8794-13.132-13.132,5.8794-13.132,13.132-13.132,13.132,5.8794,13.132,13.132z" transform="matrix(1.3667845,0,0,1.3667845,-307.87605,888.0882)"/>
				<path id="path5022" d="m558.61,387.68c0,7.2526-5.8794,13.132-13.132,13.132s-13.132-5.8794-13.132-13.132,5.8794-13.132,13.132-13.132,13.132,5.8794,13.132,13.132z" transform="matrix(1.3667845,0,0,1.3667845,-307.87605,843.64142)"/>
				<path id="path5024" d="m558.61,387.68c0,7.2526-5.8794,13.132-13.132,13.132s-13.132-5.8794-13.132-13.132,5.8794-13.132,13.132-13.132,13.132,5.8794,13.132,13.132z" transform="matrix(1.3667845,0,0,1.3667845,-263.0926,843.64142)"/>
				<path id="path5026" d="m558.61,387.68c0,7.2526-5.8794,13.132-13.132,13.132s-13.132-5.8794-13.132-13.132,5.8794-13.132,13.132-13.132,13.132,5.8794,13.132,13.132z" transform="matrix(1.3667845,0,0,1.3667845,-352.65947,888.0882)"/>
			</g>
		</g>
	</g>
</svg>
