<?xml version="1.0" encoding="UTF-8" standalone="no"?>
<!-- Created with Inkscape (http://www.inkscape.org/) -->
<svg id="svg3936" xmlns:rdf="http://www.w3.org/1999/02/22-rdf-syntax-ns#" xmlns="http://www.w3.org/2000/svg" height="359.56" width="361.58" version="1.1" xmlns:cc="http://creativecommons.org/ns#" xmlns:dc="http://purl.org/dc/elements/1.1/">
	<metadata id="metadata3941">
		<rdf:RDF>
			<cc:Work rdf:about="">
				<dc:format>image/svg+xml</dc:format>
				<dc:type rdf:resource="http://purl.org/dc/dcmitype/StillImage"/>
				<dc:title/>
			</cc:Work>
		</rdf:RDF>
	</metadata>
	<g id="layer1" stroke-linejoin="miter" transform="translate(-193.49306,-361.1573)" stroke-dashoffset="0" stroke-linecap="round" stroke-dasharray="none" stroke-miterlimit="4">
		<g id="g4748" transform="translate(34.149307,-1151.5302)">
			<rect id="rect3708" height="44.447" width="44.447" stroke="#FFF" y="1513.7" x="160.34" stroke-width="2" fill="#00d4db"/>
			<rect id="rect3710" height="44.447" width="44.447" stroke="#FFF" y="1513.7" x="294.69" stroke-width="2" fill="#00d4db"/>
			<rect id="rect3712" height="44.447" width="44.447" stroke="#FFF" y="1513.7" x="249.91" stroke-width="2" fill="#00d4db"/>
			<rect id="rect3714" height="44.447" width="44.447" stroke="#FFF" y="1513.7" x="205.12" stroke-width="2" fill="#00d4db"/>
			<rect id="rect3716" height="44.447" width="44.447" stroke="#FFF" y="1647" x="160.34" stroke-width="2" fill="#00d4db"/>
			<rect id="rect3718" height="44.447" width="44.447" stroke="#FFF" y="1647" x="294.69" stroke-width="2" fill="#00d4db"/>
			<rect id="rect3720" height="44.447" width="44.447" stroke="#FFF" y="1647" x="249.91" stroke-width="2" fill="#00d4db"/>
			<rect id="rect3722" height="44.447" width="44.447" stroke="#FFF" y="1647" x="205.12" stroke-width="2" fill="#00d4db"/>
			<rect id="rect3724" height="44.447" width="44.447" stroke="#FFF" y="1602.6" x="160.34" stroke-width="2" fill="#00d4db"/>
			<rect id="rect3726" height="44.447" width="44.447" stroke="#FFF" y="1602.6" x="294.69" stroke-width="2" fill="#00d4db"/>
			<rect id="rect3728" height="44.447" width="44.447" stroke="#FFF" y="1602.6" x="249.91" stroke-width="2" fill="#00d4db"/>
			<rect id="rect3730" height="44.447" width="44.447" stroke="#FFF" y="1602.6" x="205.12" stroke-width="2" fill="#00d4db"/>
			<rect id="rect3732" height="44.447" width="44.447" stroke="#FFF" y="1558.1" x="160.34" stroke-width="2" fill="#00d4db"/>
			<rect id="rect3734" height="44.447" width="44.447" stroke="#FFF" y="1558.1" x="294.69" stroke-width="2" fill="#00d4db"/>
			<rect id="rect3736" height="44.447" width="44.447" stroke="#FFF" y="1558.1" x="249.91" stroke-width="2" fill="#00d4db"/>
			<rect id="rect3738" height="44.447" width="44.447" stroke="#FFF" y="1558.1" x="205.12" stroke-width="2" fill="#00d4db"/>
			<g id="g4741" stroke="#dbd400" stroke-width="1.46328843" fill="#ff523d">
				<path id="path3706" d="m558.61,387.68c0,7.2526-5.8794,13.132-13.132,13.132s-13.132-5.8794-13.132-13.132,5.8794-13.132,13.132-13.132,13.132,5.8794,13.132,13.132z" transform="matrix(1.3667845,0,0,1.3667845,-518.21065,1006.0228)"/>
				<path id="path3740" d="m558.61,387.68c0,7.2526-5.8794,13.132-13.132,13.132s-13.132-5.8794-13.132-13.132,5.8794-13.132,13.132-13.132,13.132,5.8794,13.132,13.132z" transform="matrix(1.3667845,0,0,1.3667845,-562.99408,1094.9163)"/>
				<path id="path3742" d="m558.61,387.68c0,7.2526-5.8794,13.132-13.132,13.132s-13.132-5.8794-13.132-13.132,5.8794-13.132,13.132-13.132,13.132,5.8794,13.132,13.132z" transform="matrix(1.3667845,0,0,1.3667845,-518.21065,1094.9163)"/>
				<path id="path3744" d="m558.61,387.68c0,7.2526-5.8794,13.132-13.132,13.132s-13.132-5.8794-13.132-13.132,5.8794-13.132,13.132-13.132,13.132,5.8794,13.132,13.132z" transform="matrix(1.3667845,0,0,1.3667845,-473.42723,1094.9163)"/>
				<path id="path3746" d="m558.61,387.68c0,7.2526-5.8794,13.132-13.132,13.132s-13.132-5.8794-13.132-13.132,5.8794-13.132,13.132-13.132,13.132,5.8794,13.132,13.132z" transform="matrix(1.3667845,0,0,1.3667845,-473.42723,1050.4695)"/>
			</g>
		</g>
		<g id="g4772" transform="translate(36.537977,-1151.5302)">
			<rect id="rect3750" height="44.447" width="44.447" stroke="#fdc30a" y="1513.7" x="338.75" stroke-width="2" fill="#8bbe85"/>
			<rect id="rect3752" height="44.447" width="44.447" stroke="#fdc30a" y="1513.7" x="473.1" stroke-width="2" fill="#8bbe85"/>
			<rect id="rect3754" height="44.447" width="44.447" stroke="#fdc30a" y="1513.7" x="428.31" stroke-width="2" fill="#8bbe85"/>
			<rect id="rect3756" height="44.447" width="44.447" stroke="#fdc30a" y="1513.7" x="383.53" stroke-width="2" fill="#8bbe85"/>
			<rect id="rect3758" height="44.447" width="44.447" stroke="#fdc30a" y="1647" x="338.75" stroke-width="2" fill="#8bbe85"/>
			<rect id="rect3760" height="44.447" width="44.447" stroke="#fdc30a" y="1647" x="473.1" stroke-width="2" fill="#8bbe85"/>
			<rect id="rect3762" height="44.447" width="44.447" stroke="#fdc30a" y="1647" x="428.31" stroke-width="2" fill="#8bbe85"/>
			<rect id="rect3764" height="44.447" width="44.447" stroke="#fdc30a" y="1647" x="383.53" stroke-width="2" fill="#8bbe85"/>
			<rect id="rect3766" height="44.447" width="44.447" stroke="#fdc30a" y="1602.6" x="338.75" stroke-width="2" fill="#8bbe85"/>
			<rect id="rect3768" height="44.447" width="44.447" stroke="#fdc30a" y="1602.6" x="473.1" stroke-width="2" fill="#8bbe85"/>
			<rect id="rect3770" height="44.447" width="44.447" stroke="#fdc30a" y="1602.6" x="428.31" stroke-width="2" fill="#8bbe85"/>
			<rect id="rect3772" height="44.447" width="44.447" stroke="#fdc30a" y="1602.6" x="383.53" stroke-width="2" fill="#8bbe85"/>
			<rect id="rect3774" height="44.447" width="44.447" stroke="#fdc30a" y="1558.1" x="338.75" stroke-width="2" fill="#8bbe85"/>
			<rect id="rect3776" height="44.447" width="44.447" stroke="#fdc30a" y="1558.1" x="473.1" stroke-width="2" fill="#8bbe85"/>
			<rect id="rect3778" height="44.447" width="44.447" stroke="#fdc30a" y="1558.1" x="428.31" stroke-width="2" fill="#8bbe85"/>
			<rect id="rect3780" height="44.447" width="44.447" stroke="#fdc30a" y="1558.1" x="383.53" stroke-width="2" fill="#8bbe85"/>
			<g id="g3782" transform="translate(12.857143,430)" stroke="#30352d" stroke-width="1.46328843" fill="#e7cfa1">
				<path id="path3784" d="m558.61,387.68c0,7.2526-5.8794,13.132-13.132,13.132s-13.132-5.8794-13.132-13.132,5.8794-13.132,13.132-13.132,13.132,5.8794,13.132,13.132z" transform="matrix(1.3667845,0,0,1.3667845,-397.4429,620.46954)"/>
				<path id="path3786" d="m558.61,387.68c0,7.2526-5.8794,13.132-13.132,13.132s-13.132-5.8794-13.132-13.132,5.8794-13.132,13.132-13.132,13.132,5.8794,13.132,13.132z" transform="matrix(1.3667845,0,0,1.3667845,-352.65947,709.36297)"/>
				<path id="path3788" d="m558.61,387.68c0,7.2526-5.8794,13.132-13.132,13.132s-13.132-5.8794-13.132-13.132,5.8794-13.132,13.132-13.132,13.132,5.8794,13.132,13.132z" transform="matrix(1.3667845,0,0,1.3667845,-352.65947,664.91625)"/>
				<path id="path3790" d="m558.61,387.68c0,7.2526-5.8794,13.132-13.132,13.132s-13.132-5.8794-13.132-13.132,5.8794-13.132,13.132-13.132,13.132,5.8794,13.132,13.132z" transform="matrix(1.3667845,0,0,1.3667845,-307.87605,664.91625)"/>
				<path id="path3792" d="m558.61,387.68c0,7.2526-5.8794,13.132-13.132,13.132s-13.132-5.8794-13.132-13.132,5.8794-13.132,13.132-13.132,13.132,5.8794,13.132,13.132z" transform="matrix(1.3667845,0,0,1.3667845,-307.87605,620.46954)"/>
			</g>
		</g>
		<g id="g5909" transform="translate(34.149307,-1151.5302)">
			<rect id="rect3796" height="44.447" width="44.447" stroke="#bbcbff" y="1693.5" x="160.34" stroke-width="2" fill="#d1154f"/>
			<rect id="rect3798" height="44.447" width="44.447" stroke="#bbcbff" y="1693.5" x="294.69" stroke-width="2" fill="#d1154f"/>
			<rect id="rect3800" height="44.447" width="44.447" stroke="#bbcbff" y="1693.5" x="249.91" stroke-width="2" fill="#d1154f"/>
			<rect id="rect3802" height="44.447" width="44.447" stroke="#bbcbff" y="1693.5" x="205.12" stroke-width="2" fill="#d1154f"/>
			<rect id="rect3804" height="44.447" width="44.447" stroke="#bbcbff" y="1826.8" x="160.34" stroke-width="2" fill="#d1154f"/>
			<rect id="rect3806" height="44.447" width="44.447" stroke="#bbcbff" y="1826.8" x="294.69" stroke-width="2" fill="#d1154f"/>
			<rect id="rect3808" height="44.447" width="44.447" stroke="#bbcbff" y="1826.8" x="249.91" stroke-width="2" fill="#d1154f"/>
			<rect id="rect3810" height="44.447" width="44.447" stroke="#bbcbff" y="1826.8" x="205.12" stroke-width="2" fill="#d1154f"/>
			<rect id="rect3812" height="44.447" width="44.447" stroke="#bbcbff" y="1782.4" x="160.34" stroke-width="2" fill="#d1154f"/>
			<rect id="rect3814" height="44.447" width="44.447" stroke="#bbcbff" y="1782.4" x="294.69" stroke-width="2" fill="#d1154f"/>
			<rect id="rect3816" height="44.447" width="44.447" stroke="#bbcbff" y="1782.4" x="249.91" stroke-width="2" fill="#d1154f"/>
			<rect id="rect3818" height="44.447" width="44.447" stroke="#bbcbff" y="1782.4" x="205.12" stroke-width="2" fill="#d1154f"/>
			<rect id="rect3820" height="44.447" width="44.447" stroke="#bbcbff" y="1737.9" x="160.34" stroke-width="2" fill="#d1154f"/>
			<rect id="rect3822" height="44.447" width="44.447" stroke="#bbcbff" y="1737.9" x="294.69" stroke-width="2" fill="#d1154f"/>
			<rect id="rect3824" height="44.447" width="44.447" stroke="#bbcbff" y="1737.9" x="249.91" stroke-width="2" fill="#d1154f"/>
			<rect id="rect3826" height="44.447" width="44.447" stroke="#bbcbff" y="1737.9" x="205.12" stroke-width="2" fill="#d1154f"/>
			<g id="g5902" stroke="#943289" stroke-width="1.46328843" fill="#adc649">
				<path id="path3830" d="m558.61,387.68c0,7.2526-5.8794,13.132-13.132,13.132s-13.132-5.8794-13.132-13.132,5.8794-13.132,13.132-13.132,13.132,5.8794,13.132,13.132z" transform="matrix(1.3667845,0,0,1.3667845,-473.42723,1230.2565)"/>
				<path id="path3832" d="m558.61,387.68c0,7.2526-5.8794,13.132-13.132,13.132s-13.132-5.8794-13.132-13.132,5.8794-13.132,13.132-13.132,13.132,5.8794,13.132,13.132z" transform="matrix(1.3667845,0,0,1.3667845,-562.99406,1274.7031)"/>
				<path id="path3834" d="m558.61,387.68c0,7.2526-5.8794,13.132-13.132,13.132s-13.132-5.8794-13.132-13.132,5.8794-13.132,13.132-13.132,13.132,5.8794,13.132,13.132z" transform="matrix(1.3667845,0,0,1.3667845,-518.21063,1319.1499)"/>
				<path id="path3836" d="m558.61,387.68c0,7.2526-5.8794,13.132-13.132,13.132s-13.132-5.8794-13.132-13.132,5.8794-13.132,13.132-13.132,13.132,5.8794,13.132,13.132z" transform="matrix(1.3667845,0,0,1.3667845,-473.42723,1319.1499)"/>
				<path id="path3838" d="m558.61,387.68c0,7.2526-5.8794,13.132-13.132,13.132s-13.132-5.8794-13.132-13.132,5.8794-13.132,13.132-13.132,13.132,5.8794,13.132,13.132z" transform="matrix(1.3667845,0,0,1.3667845,-473.42723,1274.7031)"/>
			</g>
		</g>
		<g id="g4820" transform="translate(36.537977,-1150.4685)">
			<rect id="rect3842" height="44.447" width="44.447" stroke="#FFF" y="1692.4" x="338.75" stroke-width="2" fill="#09877c"/>
			<rect id="rect3844" height="44.447" width="44.447" stroke="#FFF" y="1692.4" x="473.1" stroke-width="2" fill="#09877c"/>
			<rect id="rect3846" height="44.447" width="44.447" stroke="#FFF" y="1692.4" x="428.31" stroke-width="2" fill="#09877c"/>
			<rect id="rect3848" height="44.447" width="44.447" stroke="#FFF" y="1692.4" x="383.53" stroke-width="2" fill="#09877c"/>
			<rect id="rect3850" height="44.447" width="44.447" stroke="#FFF" y="1825.7" x="338.75" stroke-width="2" fill="#09877c"/>
			<rect id="rect3852" height="44.447" width="44.447" stroke="#FFF" y="1825.7" x="473.1" stroke-width="2" fill="#09877c"/>
			<rect id="rect3854" height="44.447" width="44.447" stroke="#FFF" y="1825.7" x="428.31" stroke-width="2" fill="#09877c"/>
			<rect id="rect3856" height="44.447" width="44.447" stroke="#FFF" y="1825.7" x="383.53" stroke-width="2" fill="#09877c"/>
			<rect id="rect3858" height="44.447" width="44.447" stroke="#FFF" y="1781.3" x="338.75" stroke-width="2" fill="#09877c"/>
			<rect id="rect3860" height="44.447" width="44.447" stroke="#FFF" y="1781.3" x="473.1" stroke-width="2" fill="#09877c"/>
			<rect id="rect3862" height="44.447" width="44.447" stroke="#FFF" y="1781.3" x="428.31" stroke-width="2" fill="#09877c"/>
			<rect id="rect3864" height="44.447" width="44.447" stroke="#FFF" y="1781.3" x="383.53" stroke-width="2" fill="#09877c"/>
			<rect id="rect3866" height="44.447" width="44.447" stroke="#FFF" y="1736.8" x="338.75" stroke-width="2" fill="#09877c"/>
			<rect id="rect3868" height="44.447" width="44.447" stroke="#FFF" y="1736.8" x="473.1" stroke-width="2" fill="#09877c"/>
			<rect id="rect3870" height="44.447" width="44.447" stroke="#FFF" y="1736.8" x="428.31" stroke-width="2" fill="#09877c"/>
			<rect id="rect3872" height="44.447" width="44.447" stroke="#FFF" y="1736.8" x="383.53" stroke-width="2" fill="#09877c"/>
			<g id="g3874" transform="translate(12.857143,430)" stroke="#94caa6" stroke-width="1.46328843" fill="#d9017e">
				<path id="path3876" d="m558.61,387.68c0,7.2526-5.8794,13.132-13.132,13.132s-13.132-5.8794-13.132-13.132,5.8794-13.132,13.132-13.132,13.132,5.8794,13.132,13.132z" transform="matrix(1.3667845,0,0,1.3667845,-352.65947,799.19477)"/>
				<path id="path3878" d="m558.61,387.68c0,7.2526-5.8794,13.132-13.132,13.132s-13.132-5.8794-13.132-13.132,5.8794-13.132,13.132-13.132,13.132,5.8794,13.132,13.132z" transform="matrix(1.3667845,0,0,1.3667845,-307.87605,888.0882)"/>
				<path id="path3880" d="m558.61,387.68c0,7.2526-5.8794,13.132-13.132,13.132s-13.132-5.8794-13.132-13.132,5.8794-13.132,13.132-13.132,13.132,5.8794,13.132,13.132z" transform="matrix(1.3667845,0,0,1.3667845,-307.87605,843.64142)"/>
				<path id="path3882" d="m558.61,387.68c0,7.2526-5.8794,13.132-13.132,13.132s-13.132-5.8794-13.132-13.132,5.8794-13.132,13.132-13.132,13.132,5.8794,13.132,13.132z" transform="matrix(1.3667845,0,0,1.3667845,-263.0926,843.64142)"/>
				<path id="path3884" d="m558.61,387.68c0,7.2526-5.8794,13.132-13.132,13.132s-13.132-5.8794-13.132-13.132,5.8794-13.132,13.132-13.132,13.132,5.8794,13.132,13.132z" transform="matrix(1.3667845,0,0,1.3667845,-352.65947,888.0882)"/>
			</g>
		</g>
	</g>
</svg>
